…
``` r
 text_df %>% unnest_tokens(word, text)
```

    ## # A tibble: 56 × 2
    ##     line word       
    ##    <int> <chr>      
    ##  1     1 opino      
    ##  2     1 que        
    ##  3     1 cuanto     
    ##  4     1 más        
    ##  5     1 variedad   
    ##  6     1 lingüística
    ##  7     1 haya       
    ##  8     1 hay        
    ##  9     1 más        
    ## 10     1 calidad    
    ## # … with 46 more rows

``` r
 text_df %>% unnest_tokens(word, text) %>% mutate(Speaker= "002", .after=line)
```

    ## # A tibble: 56 × 3
    ##     line Speaker word       
    ##    <int> <chr>   <chr>      
    ##  1     1 002     opino      
    ##  2     1 002     que        
    ##  3     1 002     cuanto     
    ##  4     1 002     más        
    ##  5     1 002     variedad   
    ##  6     1 002     lingüística
    ##  7     1 002     haya       
    ##  8     1 002     hay        
    ##  9     1 002     más        
    ## 10     1 002     calidad    
    ## # … with 46 more rows
…
